1 10 20
10 1 20
100 200 125
201 210 89
900 1000 174
1 10000 262
999999 999999 259
1 999999 525
1 1 1
742687 969459 525
643192 607259 509
937478 451915 525
836780 746924 468
238319 501656 449
261543 963833 525
782963 246735 509
649955 828486 504
342795 384591 441
741771 494703 509
985239 671977 525
588936 824605 509
998919 641684 525
666901 217570 509
648961 450496 509
861179 770135 525
632147 864666 525
901273 907021 445
673982 306865 509
660895 996568 525
906892 96739 525
427475 604535 470
78413 566286 470
692735 120123 509
906027 293570 525
35298 252460 443
770869 608768 509
239447 481842 449
678099 751221 504
146331 969230 525
569822 736077 509
464074 134297 449
20901 353470 443
397636 329906 441
415464 804195 509
194457 177610 365
693135 282468 509
851226 535863 525
116770 657762 509
686517 853977 525
620535 225557 470
112200 204685 383
714761 7993 509
876452 738232 525
793299 641335 504
539464 613678 452
396469 767571 509
655088 35502 509
598861 912756 525
993660 357596 525
63255 495328 449
247201 749867 509
247185 822572 509
605016 410585 470
307982 698237 509
23881 547020 470
391673 809831 509
742253 411168 509
491867 822747 509
104050 564866 470
278080 507670 449
812196 680984 504
772788 559823 509
998585 679716 525
155339 124594 375
277758 476675 449
107759 435472 449
603874 904917 525
627850 243240 509
11759 245383 443
297723 265641 407
575655 80429 470
757745 686741 504
473555 159301 449
76218 255793 443
873791 12655 525
167168 266690 443
922560 608147 525
857573 102627 525
148176 282340 443
93981 157915 383
109968 513642 470
673170 91631 509
662437 124271 509
330644 882426 525
644297 366448 509
977455 81149 525
403234 231905 441
328329 591417 470
311256 664776 509
577864 23172 470
783004 495013 509
822091 59476 509
93637 160616 383
465915 594478 470
482974 307942 449
390752 796678 509
523024 206539 470
893278 846123 445
692744 234446 509
561762 90871 470
540964 260984 470
37620 777442 509
335066 383028 441
657607 241767 509
140810 450715 449
612870 606889 403
158025 277525 443
552766 752083 509
766195 138633 509
609713 289071 470
844700 632365 525
39866 183479 383
457398 885990 525
104837 205522 383
719844 817941 468
403053 264943 441
100570 888725 525
406597 211875 443
547140 95209 470
191256 813646 509
675448 155292 509
365395 452373 449
720047 925328 525
175824 549587 470
59708 930106 525
416166 925263 525
973455 693013 525
981331 350204 525
393886 226475 443
794961 387343 509
21075 558033 470
618986 232031 470
405138 339392 441
289198 68887 443
657747 835475 504
641009 510887 509
855640 544953 525
25627 710912 509
374704 417243 449
428629 591801 470
716802 399883 509
273563 609194 470
294888 562703 470
880129 994815 507
666843 570588 509
994632 390450 525
306765 935303 525
718825 69619 509
96652 831987 509
455826 681315 509
126632 677484 509
816947 29716 509
193357 997565 525
749878 979335 525
763054 774866 468
293249 303939 371
416631 884247 525
647661 338028 509
764680 844772 525
388618 427864 449
324849 157619 443
487312 813550 509
259557 419705 449
73983 229896 386
592885 960358 525
400625 123315 443
902462 728148 525
578380 49535 470
324565 713807 509
814869 234290 509
89134 668017 509
583648 679896 509
335258 13668 443
789021 497682 509
200964 423261 449
29737 439125 449
980028 898638 507
577518 553355 421
388999 924425 525
51491 374276 443
907501 611497 525
60636 809704 509
772585 318880 509
59738 510488 449
464309 718991 509
26180 364917 443
18327 407655 443
358527 550598 470
765822 17197 509
77169 77968 245
620187 639784 509
228531 694572 509
906238 145982 525
555465 167134 470
873433 665183 525
93553 63637 351
603111 635928 509
277223 299174 389
559847 592308 434
506197 242321 449
526237 586526 452
480331 362014 449
25551 723964 509
316292 820254 509
322449 496520 449
799923 396301 509
36399 985749 525
795262 59972 509
639999 160028 509
708014 463632 509
71333 257614 443
442402 479983 444
497161 568060 470
748263 235873 509
939022 769993 525
902554 334535 525
856750 905596 445
486180 56550 449
414957 432092 418
995794 551406 525
91581 920902 525
468718 964505 525
566887 535156 452
712844 183481 509
95627 707443 509
117646 539027 470
640897 385666 509
704067 369429 509
653565 913133 525
305933 525 443
1989 369781 443
381965 435743 449
978933 725029 525
328633 866518 525
616124 418157 470
722766 779984 468
972141 178359 525
503699 204591 449
645620 764084 504
624978 567322 447
354422 406888 436
633466 2318 509
745962 249420 509
846725 339392 525
265257 42305 443
55244 227895 386
525600 730186 509
994505 228221 525
107243 440291 449
